…
**q3** Process the `id` column of `df_pop` to create a `fips` column.

``` r
## TASK: Create a `fips` column by extracting the county code
df_q3 <- 
  df_pop %>%
  separate(col = "id", into = c("prefix", "fips"), sep = "US") %>%
  select(-c("prefix", "Margin of Error!!Total"))
df_q3
```

    ## # A tibble: 3,220 x 3
    ##    fips  `Geographic Area Name`   `Estimate!!Total`
    ##    <chr> <chr>                                <dbl>
    ##  1 01001 Autauga County, Alabama              55200
    ##  2 01003 Baldwin County, Alabama             208107
    ##  3 01005 Barbour County, Alabama              25782
    ##  4 01007 Bibb County, Alabama                 22527
    ##  5 01009 Blount County, Alabama               57645
    ##  6 01011 Bullock County, Alabama              10352
    ##  7 01013 Butler County, Alabama               20025
    ##  8 01015 Calhoun County, Alabama             115098
    ##  9 01017 Chambers County, Alabama             33826
    ## 10 01019 Cherokee County, Alabama             25853
    ## # … with 3,210 more rows
…
    ## [1] "Very good!"

**q4** Join `df_covid` with `df_q3` by the `fips` column. Use the proper
type of join to preserve all rows in `df_covid`.

``` r
## TASK: Join df_covid and df_q3 by fips.
df_q4 <- 
  df_covid %>%
  left_join(df_q3, by = "fips")
df_q4
```

    ## # A tibble: 369,909 x 8
    ##    date       county  state fips  cases deaths `Geographic Are… `Estimate!!Tota…
    ##    <date>     <chr>   <chr> <chr> <dbl>  <dbl> <chr>                       <dbl>
    ##  1 2020-01-21 Snohom… Wash… 53061     1      0 Snohomish Count…           786620
    ##  2 2020-01-22 Snohom… Wash… 53061     1      0 Snohomish Count…           786620
    ##  3 2020-01-23 Snohom… Wash… 53061     1      0 Snohomish Count…           786620
    ##  4 2020-01-24 Cook    Illi… 17031     1      0 Cook County, Il…          5223719
    ##  5 2020-01-24 Snohom… Wash… 53061     1      0 Snohomish Count…           786620
    ##  6 2020-01-25 Orange  Cali… 06059     1      0 Orange County, …          3164182
    ##  7 2020-01-25 Cook    Illi… 17031     1      0 Cook County, Il…          5223719
    ##  8 2020-01-25 Snohom… Wash… 53061     1      0 Snohomish Count…           786620
    ##  9 2020-01-26 Marico… Ariz… 04013     1      0 Maricopa County…          4253913
    ## 10 2020-01-26 Los An… Cali… 06037     1      0 Los Angeles Cou…         10098052
    ## # … with 369,899 more rows
…
  df_q4 %>%
  select(
    date,
    county,
    state,
    fips,
    cases,
    deaths,
    population = `Estimate!!Total`
  ) %>%
  mutate(population = as.double(population))
df_data
```

    ## # A tibble: 369,909 x 7
    ##    date       county      state      fips  cases deaths population
    ##    <date>     <chr>       <chr>      <chr> <dbl>  <dbl>      <dbl>
    ##  1 2020-01-21 Snohomish   Washington 53061     1      0     786620
    ##  2 2020-01-22 Snohomish   Washington 53061     1      0     786620
    ##  3 2020-01-23 Snohomish   Washington 53061     1      0     786620
    ##  4 2020-01-24 Cook        Illinois   17031     1      0    5223719
    ##  5 2020-01-24 Snohomish   Washington 53061     1      0     786620
    ##  6 2020-01-25 Orange      California 06059     1      0    3164182
    ##  7 2020-01-25 Cook        Illinois   17031     1      0    5223719
    ##  8 2020-01-25 Snohomish   Washington 53061     1      0     786620
    ##  9 2020-01-26 Maricopa    Arizona    04013     1      0    4253913
    ## 10 2020-01-26 Los Angeles California 06037     1      0   10098052
    ## # … with 369,899 more rows
…
**q5** Use the `population` estimates in `df_data` to normalize `cases`
and `deaths` to produce per 100,000 counts.\[3\] Store these values in
the columns `cases_perk` and `deaths_perk`.

``` r
## TASK: Normalize cases and deaths
df_normalized <-
  df_data %>%
  mutate(
    cases_perk = cases/(population/100000),
    deaths_perk = deaths/(population/100000))
df_normalized
```

    ## # A tibble: 369,909 x 9
    ##    date       county  state fips  cases deaths population cases_perk deaths_perk
    ##    <date>     <chr>   <chr> <chr> <dbl>  <dbl>      <dbl>      <dbl>       <dbl>
    ##  1 2020-01-21 Snohom… Wash… 53061     1      0     786620    0.127             0
    ##  2 2020-01-22 Snohom… Wash… 53061     1      0     786620    0.127             0
    ##  3 2020-01-23 Snohom… Wash… 53061     1      0     786620    0.127             0
    ##  4 2020-01-24 Cook    Illi… 17031     1      0    5223719    0.0191            0
    ##  5 2020-01-24 Snohom… Wash… 53061     1      0     786620    0.127             0
    ##  6 2020-01-25 Orange  Cali… 06059     1      0    3164182    0.0316            0
    ##  7 2020-01-25 Cook    Illi… 17031     1      0    5223719    0.0191            0
    ##  8 2020-01-25 Snohom… Wash… 53061     1      0     786620    0.127             0
    ##  9 2020-01-26 Marico… Ariz… 04013     1      0    4253913    0.0235            0
    ## 10 2020-01-26 Los An… Cali… 06037     1      0   10098052    0.00990           0
    ## # … with 369,899 more rows
…
**q7** Find the top 10 counties in terms of `cases_perk`, and the top 10
in terms of `deaths_perk`. Report the population of each county along
with the per-100,000 counts. Compare the counts against the mean values
you found in q6. Note any observations. Does New York City show up in
the top? Why or why not?

``` r
## TASK: Find the top 10 max cases_perk counties; report populations as well
df_normalized %>%
  filter(date == "2020-07-25") %>%
  arrange(desc(cases_perk)) %>%
  select(cases_perk, county, state, population)
```

    ## # A tibble: 3,210 x 4
    ##    cases_perk county              state     population
    ##         <dbl> <chr>               <chr>          <dbl>
    ##  1     16285. Trousdale           Tennessee       9573
    ##  2      9381. Lake                Tennessee       7526
    ##  3      9288. Dakota              Nebraska       20317
    ##  4      9268. Lee                 Arkansas        9398
    ##  5      8756. Buena Vista         Iowa           20260
    ##  6      8346. Lincoln             Arkansas       13695
    ##  7      7899. Nobles              Minnesota      21839
    ##  8      7079. Bristol Bay Borough Alaska           890
    ##  9      6685. East Carroll        Louisiana       7225
    ## 10      6394. Colfax              Nebraska       10760
    ## # … with 3,200 more rows

``` r
## TASK: Find the top 10 deaths_perk counties; report populations as well
df_normalized %>%
  filter(date == "2020-07-25") %>%
  arrange(desc(deaths_perk)) %>%
  select(deaths_perk, county, state, population)
```

    ## # A tibble: 3,210 x 4
    ##    deaths_perk county       state       population
    ##          <dbl> <chr>        <chr>            <dbl>
    ##  1        398. Hancock      Georgia           8535
    ##  2        367. Randolph     Georgia           7087
    ##  3        327. Terrell      Georgia           8859
    ##  4        300. Early        Georgia          10348
    ##  5        288. McKinley     New Mexico       72849
    ##  6        279. Neshoba      Mississippi      29376
    ##  7        279. Emporia city Virginia          5381
    ##  8        265. Essex        New Jersey      793555
    ##  9        254. Lowndes      Alabama          10236
    ## 10        246. Passaic      New Jersey      504041
    ## # … with 3,200 more rows
…
    ## `summarise()` ungrouping output (override with `.groups` argument)

``` r
df_states_2020_07_25
```

    ## # A tibble: 55 x 6
    ##    region                cases deaths      pop Cases Deaths
    ##    <chr>                 <dbl>  <dbl>    <dbl> <dbl>  <dbl>
    ##  1 alabama               78130   1456  4864680 1606.  29.9 
    ##  2 alaska                 2866     18   734634  390.   2.45
    ##  3 arizona              160055   3288  6946685 2304.  47.3 
    ##  4 arkansas              37981    399  2990671 1270.  13.3 
    ##  5 california           453327   8428 39139822 1158.  21.5 
    ##  6 colorado              43847   1795  5529692  793.  32.5 
    ##  7 connecticut           48776   4413  3581504 1362. 123.  
    ##  8 delaware              14175    579   949495 1493.  61.0 
    ##  9 district of columbia  11717    581   684498 1712.  84.9 
    ## 10 florida              414503   5776 20598139 2012.  28.0 
    ## # … with 45 more rows
…
