…
<!-- end list -->

``` r
age_summary_ed <-
  tbi_age %>%
  filter(type == "Emergency Department Visit") %>%
  filter(number_est > 0, age_group != "0-17", age_group !="Total") %>%
  mutate(thousands = number_est/1000)
age_summary_ed
```

    ## # A tibble: 59 x 6
    ##    age_group type        injury_mechanism          number_est rate_est thousands
    ##    <chr>     <chr>       <chr>                          <dbl>    <dbl>     <dbl>
    ##  1 0-4       Emergency … Motor Vehicle Crashes           5464     27.5     5.46 
    ##  2 0-4       Emergency … Unintentional Falls           230776   1161     231.   
    ##  3 0-4       Emergency … Unintentionally struck b…      53436    269.     53.4  
    ##  4 0-4       Emergency … Other unintentional inju…      12007     60.4    12.0  
    ##  5 0-4       Emergency … Assault                          674      3.4     0.674
    ##  6 0-4       Emergency … Other or no mechanism sp…      19360     97.4    19.4  
    ##  7 5-14      Emergency … Motor Vehicle Crashes          19785     48      19.8  
    ##  8 5-14      Emergency … Unintentional Falls           133084    323.    133.   
    ##  9 5-14      Emergency … Unintentionally struck b…     120839    293.    121.   
    ## 10 5-14      Emergency … Other unintentional inju…      30656     74.4    30.7  
    ## # … with 49 more rows
…
    injury_mechanism == "Other unintentional injury, mechanism unspecified", 
    "Other Unintentional Injury",
    injury_mechanism)) %>%
  mutate(injury_mechanism = ifelse(
    injury_mechanism == "Other or no mechanism specified", 
    "Other",
    injury_mechanism)) %>%
  mutate(injury_mechanism = ifelse(
    injury_mechanism == "Intentional self-harm", 
    "Intentional Self-Harm",
    injury_mechanism))
age_summary_renamed
```

    ## # A tibble: 59 x 4
    ## # Groups:   age_group [9]
    ##    age_group injury_mechanism                  total total_rate
    ##    <fct>     <chr>                             <dbl>      <dbl>
    ##  1 0-4       Assault                            1.96        9.8
    ##  2 0-4       Motor Vehicle Crashes              6.52       32.8
    ##  3 0-4       Other                             20.5       103. 
    ##  4 0-4       Other Unintentional Injury        12.9        65  
    ##  5 0-4       Unintentional Falls              235.       1185. 
    ##  6 0-4       Unintentional Strike with Object  54.0       272. 
    ##  7 15-24     Assault                           69.7       159. 
    ##  8 15-24     Intentional Self-Harm              3.32        7.5
    ##  9 15-24     Motor Vehicle Crashes            119.        271. 
    ## 10 15-24     Other                             35.5        80.9
    ## # … with 49 more rows
…
